[   
    {
        "type" : "initial",
        "name": "Website cost calculator",
        "description": "Have you ever wondered how much it would cost to make a website? This handy app cost calculator will help you: Find out how much your website will cost in under a minute!",
        "img": "./static/images/calculator.svg",
        "options": [
            {
                "title" : "Get started",
                "price" : 0
            }
        ]
    },
    {   
        "type":"step",
        "name": "Do you need a domain?",
        "description": "We can provide you with a domain if you don't have one.",
        "img": "./static/images/domain.svg",
        "options": [
            {
                "title": "Yes",
                "price": 0
            },
            {
                "title": "No",
                "price": 0
            }
        ]
    },
    {   
        "type": "step",
        "name" : "How many pages do you need?",
        "description" : "",
        "img": "./static/images/pages.svg",
        "options" : [
            { 
                "title" : "1 - 3",
                "price" : 2400
            },
            { 
                "title" : "4 - 9",
                "price" : 3200
            },
            {   
                "title" : "10+",
                "price" : 4600
            }
        ]
    },
    {   
        "type": "step",
        "name" : "Do people have to log in?",
        "description" : "",
        "img" : "./static/images/login.svg",
        "options" : [
            {
                "title" : "Email",
                "price" : 1200
            },
            {
                "title" : "Social",
                "price" : 2200
            },
            {
                "title": "No",
                "price": 0
            }
        ]
    },
    {   
        "type": "step",
        "name": "Do people create personal profiles?",
        "description": "A profile means that some of the people that use your app will have to enter information about themselves that might be viewed staticly.",
        "img": "./static/images/profile.svg",
        "options": [
            {
                "title": "Yes",
                "price": 2800
            },
            {
                "title": "No",
                "price": 0
            }
        ]
    },
    {   
        "type": "step",
        "name": "Will you need to accept payments?",
        "description": "Accept credit cards, Paypal, etc...",
        "img": "./static/images/payments.svg",
        "options": [
            {
                "title": "Yes",
                "price": 4200
            },
            {
                "title": "No",
                "price": 0
            }
        ]
    },
    {   
        "type": "step",
        "name": "Will users rate or leave reviews?",
        "description": "People leave reviews and/or rate things.",
        "img": "./static/images/rating.svg",
        "options": [
            {
                "title": "Yes",
                "price": 3000
            },
            {
                "title": "No",
                "price": 0
            }
        ]
    },
    {   
        "type": "step",
        "name": "Will it need to connect to an external API?",
        "description": "This means that website or web app will fetch content from an external source.",
        "img": "./static/images/api.svg",
        "options": [
            {
                "title": "Yes",
                "price": 3100
            },
            {
                "title": "No",
                "price": 0
            }
        ]
    },
    {   
        "type": "step",
        "name": "Does your website need search?",
        "description": "The cost to build a search function can vary greatly. The price given here is an average for search integration based on basic tagging. Not Google.",
        "img": "./static/images/search.svg",
        "options": [
            {
                "title": "Yes",
                "price": 3400
            },
            {
                "title": "No",
                "price": 0
            }
        ]
    },
    {   
        "type": "step",
        "name": "Do you need a Content Management System (CMS)?",
        "description": "A CMS will let you update content on your site without writing code.",
        "img": "./static/images/cms.svg",
        "options": [
            {
                "title": "Yes",
                "price": 2500
            },
            {
                "title": "No",
                "price": 0
            }
        ]
    },
    {   
        "type": "step",
        "name": "Do you need blog features?",
        "description": "Do you plan to write content often and update the site.",
        "img": "./static/images/blog.svg",
        "options": [
            {
                "title": "Yes",
                "price": 1800
            },
            {
                "title": "No",
                "price": 0
            }
        ]
    },
    {   
        "type": "step",
        "name": "Should it be optimized for search engines (SEO)?",
        "description": "This means we will optimize the website to be high ranked on search engines",
        "img": "./static/images/seo.svg",
        "options": [
            {
                "title": "Yes",
                "price": 3000
            },
            {
                "title": "No",
                "price": 0
            }
        ]
    },
    {   
        "type": "step",
        "name": "Do you want us to take care of the deployment?",
        "description": "Do you plan to take care of the deploymnet of the site or should we provide hosting.",
        "img": "./static/images/hosting.svg",
        "options": [
            {
                "title": "Yes",
                "price": 2000
            },
            {
                "title": "No",
                "price": 0
            }
        ]
    },{
        "type": "form",
        "email": "hello@nexticode.com",
        "name": "Your website cost estimate",
        "description": "At Nexticode, we craft custom web applications and websites. Submite your estimate and let's start!"
    }
]